{
  "turnover": 1020000,
  "RC": {
    "1": {
      "300": {
        "urbain": {
          "TOTAL_COT_HT": 1278.99,
          "TOTAL_TAX": 115.11,
          "FRAIS_COURTIER": 127.90,
          "PRIM_AN": 1527.90
        },
        "rural": {
          "TOTAL_COT_HT": 2655.14,
          "TOTAL_TAX": 238.96,
          "FRAIS_COURTIER": 265.51,
          "PRIM_AN": 3165.51
        }
      },
      "500": {
        "urbain": {
          "TOTAL_COT_HT": 1150.55,
          "TOTAL_TAX": 103.55,
          "FRAIS_COURTIER": 115.06,
          "PRIM_AN": 1375.06
        },
        "rural": {
          "TOTAL_COT_HT": 2389.08,
          "TOTAL_TAX": 215.02,
          "FRAIS_COURTIER": 238.91,
          "PRIM_AN": 2848.91
        }
      }
    }
  },
  "MRP": {
    "1": {
      "300": {
        "urbain": {
          "TOT_HT": 1858.04,
          "TOT_TAXES": 136.06,
          "FRAIS_COURTIER": 160.98,
          "PRIM_ANN": 2160.98
        },
        "rural": {
          "TOT_HT": 2194.11,
          "TOT_TAXES": 159.99,
          "FRAIS_COURTIER": 189.78,
          "PRIM_ANN": 2549.78
        }
      },
      "500": {
        "urbain": {
          "TOT_HT": 1671.68,
          "TOT_TAXES": 122.43,
          "FRAIS_COURTIER": 144.84,
          "PRIM_ANN": 1944.84
        },
        "rural": {
          "TOT_HT": 1974.14 ,
          "TOT_TAXES": 143.96,
          "FRAIS_COURTIER": 170.76,
          "PRIM_ANN": 2294.76
        }
      }
    }
  },
  "MRP + RC": {
    "1": {
      "300": {
        "urbain": {
          "TOT_HT": 2680.25 ,
          "TOT_TAXES": 203.84 ,
          "FRAIS_COURTIER": 234.41 ,
          "PRIM_ANN": 3124.41
        },
        "rural": {
          "TOT_HT": 3660.92,
          "TOT_TAXES": 278.18,
          "FRAIS_COURTIER": 321.23,
          "PRIM_ANN": 4266.23 
        }
      },
      "500": {
        "urbain": {
          "TOT_HT": 2411.67 ,
          "TOT_TAXES": 183.42,
          "FRAIS_COURTIER": 210.92,
          "PRIM_ANN": 2811.92
        },
        "rural": {
          "TOT_HT": 3294.27,
          "TOT_TAXES": 250.32,
          "FRAIS_COURTIER": 289.06,
          "PRIM_ANN": 3839.56
        }
      }
    }
  }
}
